<?xml version="1.0" encoding="UTF-8" standalone="no"?>
<!-- Generator: Adobe Illustrator 12.0.1, SVG Export Plug-In . SVG Version: 6.00 Build 51448)  -->

<svg
   version="1.0"
   id="Ebene_1"
   width="175.748"
   height="175.748"
   viewBox="0 0 175.748 175.748"
   overflow="visible"
   enable-background="new 0 0 175.748 38.786"
   xml:space="preserve"
   sodipodi:docname="logo.svg"
   inkscape:version="1.1.2 (76b9e6a115, 2022-02-25)"
   xmlns:inkscape="http://www.inkscape.org/namespaces/inkscape"
   xmlns:sodipodi="http://sodipodi.sourceforge.net/DTD/sodipodi-0.dtd"
   xmlns="http://www.w3.org/2000/svg"
   xmlns:svg="http://www.w3.org/2000/svg"><defs
   id="defs9" /><sodipodi:namedview
   id="namedview7"
   pagecolor="#ffffff"
   bordercolor="#666666"
   borderopacity="1.0"
   inkscape:pageshadow="2"
   inkscape:pageopacity="0.0"
   inkscape:pagecheckerboard="0"
   showgrid="false"
   inkscape:zoom="2.7462083"
   inkscape:cx="135.09536"
   inkscape:cy="58.444219"
   inkscape:window-width="1848"
   inkscape:window-height="1016"
   inkscape:window-x="0"
   inkscape:window-y="0"
   inkscape:window-maximized="1"
   inkscape:current-layer="Ebene_1" />


<rect
   style="fill:#fecc00;fill-opacity:1;stroke-width:1.0803"
   id="rect33"
   width="175.748"
   height="175.748"
   x="1.8955078e-06"
   y="0" /><path
   fill="#d50029"
   d="m 56.665,84.687997 c -0.768,1.04 -2.053,2.848 -2.835,3.904 -0.397,0.537 -1.114,1.512 1.263,1.512 2.515,0 12.515,0 12.515,0 0,0 2.017,-2.744 3.708,-5.039 2.3,-3.122 0.199,-9.618 -8.024,-9.618 -7.36,0 -32.384,0 -32.384,0 l -5.615,7.629 c 0,0 29.109,0 30.603,0 1.545,0 1.524,0.588 0.769,1.612 z m -9.194,7.298 c -2.377,0 -1.66,-0.977 -1.263,-1.514 0.782,-1.056 2.088,-2.845 2.856,-3.885 0.756,-1.024 0.776,-1.612 -0.771,-1.612 -1.493,0 -13.996,0 -13.996,0 L 23.02,100.301 c 0,0 20.141,0 27.501,0 9.083,0 14.14,-6.178003 15.699,-8.314003 0,-0.001 -16.235,-0.001 -18.749,-0.001 z m 17.89,8.315003 h 16.133 l 6.116,-8.316003 -16.131,0.002 c -0.005,-0.001 -6.118,8.314003 -6.118,8.314003 z m 41.625,-24.854003 -6.188,8.405 h -7.2 l 6.185,-8.405 H 83.655 l -10.79,14.657 h 39.46 l 10.787,-14.657 z M 88.694,100.301 h 16.127 l 6.119,-8.314003 H 94.813 c -0.006,-0.001 -6.119,8.314003 -6.119,8.314003 z M 0,95.265997 v 1.766 h 22.468 l 1.298,-1.766 z m 26.181,-3.28 H 0 v 1.764 H 24.88 Z M 0,100.301 h 20.061 l 1.292,-1.756003 H 0 Z m 152.072,-3.270003 h 23.676 v -1.766 h -22.376 z m -2.405,3.270003 h 26.081 v -1.756003 h -24.79 z m 6.116,-8.315003 -1.297,1.766 h 21.262 v -1.766 z m -21.124,-1.882 10.789,-14.657 h -17.081 c -0.006,0 -10.797,14.657 -10.797,14.657 z m -18.472,1.882 c 0,0 -1.179,1.611 -1.752,2.387 -2.025,2.736 -0.234,5.928003 6.376,5.928003 7.636,0 25.901,0 25.901,0 l 6.119,-8.314003 h -36.644 z"
   id="path4" /></svg>
